%YAML 1.1
%TAG !u! tag:unity3d.com,2011:
--- !u!114 &11400000
MonoBehaviour:
  m_ObjectHideFlags: 0
  m_CorrespondingSourceObject: {fileID: 0}
  m_PrefabInstance: {fileID: 0}
  m_PrefabAsset: {fileID: 0}
  m_GameObject: {fileID: 0}
  m_Enabled: 1
  m_EditorHideFlags: 0
  m_Script: {fileID: 11500000, guid: 9c06328759a6c384badd0b795e3e03f5, type: 3}
  m_Name: On Color Changed
  m_EditorClassIdentifier: 
  theColor: {r: 0.5660378, g: 0.050729785, b: 0.13596886, a: 0}
